# Blender v2.77 (sub 0) OBJ File: ''
# www.blender.org
mtllib sword.mtl
o sword_Cube.003
v -0.100000 4.800000 0.200001
v -0.100000 4.800000 -0.199999
v -0.100000 2.300000 -0.200000
v -0.100000 2.300000 0.200000
v 0.100000 4.800000 -0.199999
v 0.100000 4.800000 0.200001
v 0.100000 2.300000 0.200000
v 0.100000 2.300000 -0.200000
v 0.100000 2.100000 -0.200000
v -0.100000 2.100000 -0.200000
v -0.100000 2.100000 -0.600000
v 0.100000 2.100000 -0.600000
v 0.000000 2.300000 -0.400000
v 0.000000 5.400000 0.000001
v 0.000000 2.300000 0.401684
v 0.000000 4.800000 0.401685
v 0.000000 4.800000 -0.399999
v 0.100000 2.100000 -0.200000
v -0.100000 2.100000 -0.200000
v -0.300000 2.300000 0.200000
v -0.300000 2.100000 0.200000
v -0.300000 2.100000 0.600000
v -0.300000 2.300000 0.600000
v -0.300000 2.300000 -0.200000
v -0.100000 2.300000 0.600000
v -0.300000 2.100000 -0.200000
v 0.300000 2.100000 0.200000
v 0.300000 2.300000 0.200000
v 0.300000 2.300000 0.600000
v 0.300000 2.100000 0.600000
v -0.300000 2.100000 -0.600000
v -0.100000 2.100000 0.200000
v 0.300000 2.300000 -0.200000
v 0.300000 2.100000 -0.200000
v 0.100000 2.300000 -0.600000
v -0.100000 2.300000 -0.600000
v 0.100000 2.100000 0.200000
v 0.100000 2.300000 0.600000
v 0.100000 2.100000 0.600000
v -0.100000 2.100000 0.600000
v -0.300000 2.300000 -0.600000
v 0.300000 2.300000 -0.600000
v 0.300000 2.100000 -0.600000
v -0.048149 2.100000 0.086445
v -0.048149 2.100000 -0.086445
v -0.048149 1.400000 -0.086445
v -0.048149 1.400000 0.086445
v 0.100000 2.100000 0.200000
v -0.100000 2.100000 0.200000
v 0.048149 2.100000 0.086445
v 0.048149 2.100000 -0.086445
v 0.048149 1.400000 -0.086445
v 0.048149 1.400000 0.086445
vn -0.9723 0.1601 0.1702
vn -0.9973 0.0732 0.0000
vn -1.0000 0.0000 0.0000
vn 1.0000 0.0000 0.0000
vn 0.0000 -1.0000 0.0000
vn 0.9864 0.1644 0.0000
vn 0.0000 -0.5506 0.8347
vn -0.8598 0.2812 0.4263
vn 0.3581 0.9166 0.1776
vn 0.8959 -0.0000 0.4442
vn -0.8959 -0.0000 0.4442
vn 0.8944 0.0000 -0.4472
vn -0.8944 0.0000 -0.4472
vn -0.8838 0.1535 -0.4419
vn -0.6342 0.2713 -0.7240
vn -0.9674 0.2089 0.1429
vn 0.8587 0.2851 0.4258
vn -0.8587 0.2851 0.4258
vn 0.0000 0.5547 -0.8321
vn 0.8571 0.2857 -0.4286
vn 0.0000 0.0000 0.0000
vn 0.0000 1.0000 0.0000
vn 0.0000 0.0000 1.0000
vn 0.0000 0.0000 -1.0000
usemtl None
s 1
f 1//1 2//2 3//3 4//3
f 5//4 6//4 7//4 8//4
f 9//5 10//5 11//5 12//5
f 13//5 8//5 3//5
f 6//6 5//6 14//6
f 15//7 4//8 7//9
f 6//10 16//10 15//7 7//9
f 16//11 1//11 4//8 15//7
f 17//12 5//12 8//12 13//12
f 13//13 3//13 2//14 17//15
f 1//1 14//16 2//2
f 16//17 6//17 14//17
f 16//18 14//16 1//1
f 2//14 14//19 17//15
f 17//15 14//19 5//20
f 10//21 9//21 18//21 19//21
f 20//3 21//3 22//3 23//3
f 4//22 3//22 24//22 20//22
f 4//22 20//22 23//22 25//22
f 20//3 24//3 26//3 21//3
f 27//4 28//4 29//4 30//4
f 10//5 26//5 31//5 11//5
f 10//5 32//5 21//5 26//5
f 33//4 28//4 27//4 34//4
f 3//22 8//22 35//22 36//22
f 37//5 9//5 34//5 27//5
f 8//22 7//9 28//22 33//22
f 38//23 39//23 30//23 29//23
f 38//23 25//23 40//23 39//23
f 40//23 25//23 23//23 22//23
f 37//5 27//5 30//5 39//5
f 21//5 32//5 40//5 22//5
f 32//5 37//5 39//5 40//5
f 28//22 7//9 38//22 29//22
f 7//9 4//8 25//22 38//22
f 36//24 35//24 12//24 11//24
f 36//24 11//24 31//24 41//24
f 12//24 35//24 42//24 43//24
f 8//22 33//22 42//22 35//22
f 33//4 34//4 43//4 42//4
f 34//5 9//5 12//5 43//5
f 24//22 3//22 36//22 41//22
f 26//3 24//3 41//3 31//3
f 44//3 45//3 46//3 47//3
f 9//21 37//21 48//21 18//21
f 32//21 10//21 19//21 49//21
f 37//21 32//21 49//21 48//21
f 50//5 51//5 18//5 48//5
f 44//5 50//5 48//5 49//5
f 51//5 45//5 19//5 18//5
f 45//5 44//5 49//5 19//5
f 47//5 46//5 52//5 53//5
f 50//23 44//23 47//23 53//23
f 45//24 51//24 52//24 46//24
f 51//4 50//4 53//4 52//4
